\relax 
\@writefile{lof}{\contentsline {figure}{\numberline {1}{\ignorespaces }}{1}}
\newlabel{}{{1}{1}}
\@writefile{toc}{\contentsline {section}{\numberline {I}Question 1}{1}}
\@writefile{toc}{\contentsline {section}{\numberline {II}Question 2}{1}}
\@writefile{lof}{\contentsline {figure}{\numberline {2}{\ignorespaces }}{1}}
\newlabel{}{{2}{1}}
\@writefile{toc}{\contentsline {section}{\numberline {III}Question 3}{1}}
\@writefile{toc}{\contentsline {section}{\numberline {IV}Question 4}{1}}
\@writefile{toc}{\contentsline {section}{\numberline {V}Question 5}{1}}
\@writefile{toc}{\contentsline {section}{\numberline {VI}Question 6}{1}}
\@writefile{lof}{\contentsline {figure}{\numberline {3}{\ignorespaces }}{2}}
\newlabel{}{{3}{2}}
\@writefile{lof}{\contentsline {figure}{\numberline {4}{\ignorespaces }}{2}}
\newlabel{}{{4}{2}}
\@writefile{toc}{\contentsline {section}{\numberline {VII}Question 7}{2}}
\@writefile{toc}{\contentsline {section}{\numberline {VIII}Question 8}{2}}
\@writefile{lof}{\contentsline {figure}{\numberline {5}{\ignorespaces }}{2}}
\newlabel{}{{5}{2}}
\@writefile{lof}{\contentsline {figure}{\numberline {6}{\ignorespaces }}{2}}
\newlabel{}{{6}{2}}
\@writefile{toc}{\contentsline {section}{\numberline {IX}Question 9}{2}}
\bibcite{IEEEhowto:kopka}{1}
\bibcite{IEEEhowto:kopka}{2}
\bibcite{IEEEhowto:kopka}{3}
\@writefile{toc}{\contentsline {section}{References}{3}}
