%!PS-Adobe-3.0 EPSF-3.0
%%Creator: (MATLAB, The Mathworks, Inc. Version 8.6.0.267246 \(R2015b\). Operating System: Mac OS X)
%%Title: /Users/fuzuohui/Desktop/PHD/15Fall/Biometrics/project3/report_latex/fig3.eps
%%CreationDate: 2015-11-12T21:42:08
%%Pages: (atend)
%%BoundingBox: 0 0 560 420
%%LanguageLevel: 2
%%EndComments
%%BeginProlog
%%BeginResource: procset (Apache XML Graphics Std ProcSet) 1.2 0
%%Version: 1.2 0
%%Copyright: (Copyright 2001-2003,2010 The Apache Software Foundation. License terms: http://www.apache.org/licenses/LICENSE-2.0)
/bd{bind def}bind def
/ld{load def}bd
/GR/grestore ld
/M/moveto ld
/LJ/setlinejoin ld
/C/curveto ld
/f/fill ld
/LW/setlinewidth ld
/GC/setgray ld
/t/show ld
/N/newpath ld
/CT/concat ld
/cp/closepath ld
/S/stroke ld
/L/lineto ld
/CC/setcmykcolor ld
/A/ashow ld
/GS/gsave ld
/RC/setrgbcolor ld
/RM/rmoveto ld
/ML/setmiterlimit ld
/re {4 2 roll M
1 index 0 rlineto
0 exch rlineto
neg 0 rlineto
cp } bd
/_ctm matrix def
/_tm matrix def
/BT { _ctm currentmatrix pop matrix _tm copy pop 0 0 moveto } bd
/ET { _ctm setmatrix } bd
/iTm { _ctm setmatrix _tm concat } bd
/Tm { _tm astore pop iTm 0 0 moveto } bd
/ux 0.0 def
/uy 0.0 def
/F {
  /Tp exch def
  /Tf exch def
  Tf findfont Tp scalefont setfont
  /cf Tf def  /cs Tp def
} bd
/ULS {currentpoint /uy exch def /ux exch def} bd
/ULE {
  /Tcx currentpoint pop def
  gsave
  newpath
  cf findfont cs scalefont dup
  /FontMatrix get 0 get /Ts exch def /FontInfo get dup
  /UnderlinePosition get Ts mul /To exch def
  /UnderlineThickness get Ts mul /Tt exch def
  ux uy To add moveto  Tcx uy To add lineto
  Tt setlinewidth stroke
  grestore
} bd
/OLE {
  /Tcx currentpoint pop def
  gsave
  newpath
  cf findfont cs scalefont dup
  /FontMatrix get 0 get /Ts exch def /FontInfo get dup
  /UnderlinePosition get Ts mul /To exch def
  /UnderlineThickness get Ts mul /Tt exch def
  ux uy To add cs add moveto Tcx uy To add cs add lineto
  Tt setlinewidth stroke
  grestore
} bd
/SOE {
  /Tcx currentpoint pop def
  gsave
  newpath
  cf findfont cs scalefont dup
  /FontMatrix get 0 get /Ts exch def /FontInfo get dup
  /UnderlinePosition get Ts mul /To exch def
  /UnderlineThickness get Ts mul /Tt exch def
  ux uy To add cs 10 mul 26 idiv add moveto Tcx uy To add cs 10 mul 26 idiv add lineto
  Tt setlinewidth stroke
  grestore
} bd
/QT {
/Y22 exch store
/X22 exch store
/Y21 exch store
/X21 exch store
currentpoint
/Y21 load 2 mul add 3 div exch
/X21 load 2 mul add 3 div exch
/X21 load 2 mul /X22 load add 3 div
/Y21 load 2 mul /Y22 load add 3 div
/X22 load /Y22 load curveto
} bd
/SSPD {
dup length /d exch dict def
{
/v exch def
/k exch def
currentpagedevice k known {
/cpdv currentpagedevice k get def
v cpdv ne {
/upd false def
/nullv v type /nulltype eq def
/nullcpdv cpdv type /nulltype eq def
nullv nullcpdv or
{
/upd true def
} {
/sametype v type cpdv type eq def
sametype {
v type /arraytype eq {
/vlen v length def
/cpdvlen cpdv length def
vlen cpdvlen eq {
0 1 vlen 1 sub {
/i exch def
/obj v i get def
/cpdobj cpdv i get def
obj cpdobj ne {
/upd true def
exit
} if
} for
} {
/upd true def
} ifelse
} {
v type /dicttype eq {
v {
/dv exch def
/dk exch def
/cpddv cpdv dk get def
dv cpddv ne {
/upd true def
exit
} if
} forall
} {
/upd true def
} ifelse
} ifelse
} if
} ifelse
upd true eq {
d k v put
} if
} if
} if
} forall
d length 0 gt {
d setpagedevice
} if
} bd
%%EndResource
%%BeginResource: procset (Apache XML Graphics EPS ProcSet) 1.0 0
%%Version: 1.0 0
%%Copyright: (Copyright 2002-2003 The Apache Software Foundation. License terms: http://www.apache.org/licenses/LICENSE-2.0)
/BeginEPSF { %def
/b4_Inc_state save def         % Save state for cleanup
/dict_count countdictstack def % Count objects on dict stack
/op_count count 1 sub def      % Count objects on operand stack
userdict begin                 % Push userdict on dict stack
/showpage { } def              % Redefine showpage, { } = null proc
0 setgray 0 setlinecap         % Prepare graphics state
1 setlinewidth 0 setlinejoin
10 setmiterlimit [ ] 0 setdash newpath
/languagelevel where           % If level not equal to 1 then
{pop languagelevel             % set strokeadjust and
1 ne                           % overprint to their defaults.
{false setstrokeadjust false setoverprint
} if
} if
} bd
/EndEPSF { %def
count op_count sub {pop} repeat            % Clean up stacks
countdictstack dict_count sub {end} repeat
b4_Inc_state restore
} bd
%%EndResource
%FOPBeginFontDict
%%IncludeResource: font Courier-Bold
%%IncludeResource: font Helvetica
%%IncludeResource: font Courier-BoldOblique
%%IncludeResource: font Courier-Oblique
%%IncludeResource: font Times-Roman
%%IncludeResource: font Helvetica-BoldOblique
%%IncludeResource: font Helvetica-Bold
%%IncludeResource: font Helvetica-Oblique
%%IncludeResource: font Times-BoldItalic
%%IncludeResource: font Courier
%%IncludeResource: font Times-Italic
%%IncludeResource: font Times-Bold
%%IncludeResource: font Symbol
%%IncludeResource: font ZapfDingbats
%FOPEndFontDict
%%BeginResource: encoding WinAnsiEncoding
/WinAnsiEncoding [
/.notdef /.notdef /.notdef /.notdef /.notdef
/.notdef /.notdef /.notdef /.notdef /.notdef
/.notdef /.notdef /.notdef /.notdef /.notdef
/.notdef /.notdef /.notdef /.notdef /.notdef
/.notdef /.notdef /.notdef /.notdef /.notdef
/.notdef /.notdef /.notdef /.notdef /.notdef
/.notdef /.notdef /space /exclam /quotedbl
/numbersign /dollar /percent /ampersand /quotesingle
/parenleft /parenright /asterisk /plus /comma
/hyphen /period /slash /zero /one
/two /three /four /five /six
/seven /eight /nine /colon /semicolon
/less /equal /greater /question /at
/A /B /C /D /E
/F /G /H /I /J
/K /L /M /N /O
/P /Q /R /S /T
/U /V /W /X /Y
/Z /bracketleft /backslash /bracketright /asciicircum
/underscore /quoteleft /a /b /c
/d /e /f /g /h
/i /j /k /l /m
/n /o /p /q /r
/s /t /u /v /w
/x /y /z /braceleft /bar
/braceright /asciitilde /bullet /Euro /bullet
/quotesinglbase /florin /quotedblbase /ellipsis /dagger
/daggerdbl /circumflex /perthousand /Scaron /guilsinglleft
/OE /bullet /Zcaron /bullet /bullet
/quoteleft /quoteright /quotedblleft /quotedblright /bullet
/endash /emdash /asciitilde /trademark /scaron
/guilsinglright /oe /bullet /zcaron /Ydieresis
/space /exclamdown /cent /sterling /currency
/yen /brokenbar /section /dieresis /copyright
/ordfeminine /guillemotleft /logicalnot /sfthyphen /registered
/macron /degree /plusminus /twosuperior /threesuperior
/acute /mu /paragraph /middot /cedilla
/onesuperior /ordmasculine /guillemotright /onequarter /onehalf
/threequarters /questiondown /Agrave /Aacute /Acircumflex
/Atilde /Adieresis /Aring /AE /Ccedilla
/Egrave /Eacute /Ecircumflex /Edieresis /Igrave
/Iacute /Icircumflex /Idieresis /Eth /Ntilde
/Ograve /Oacute /Ocircumflex /Otilde /Odieresis
/multiply /Oslash /Ugrave /Uacute /Ucircumflex
/Udieresis /Yacute /Thorn /germandbls /agrave
/aacute /acircumflex /atilde /adieresis /aring
/ae /ccedilla /egrave /eacute /ecircumflex
/edieresis /igrave /iacute /icircumflex /idieresis
/eth /ntilde /ograve /oacute /ocircumflex
/otilde /odieresis /divide /oslash /ugrave
/uacute /ucircumflex /udieresis /yacute /thorn
/ydieresis
] def
%%EndResource
%FOPBeginFontReencode
/Courier-Bold findfont
dup length dict begin
  {1 index /FID ne {def} {pop pop} ifelse} forall
  /Encoding WinAnsiEncoding def
  currentdict
end
/Courier-Bold exch definefont pop
/Helvetica findfont
dup length dict begin
  {1 index /FID ne {def} {pop pop} ifelse} forall
  /Encoding WinAnsiEncoding def
  currentdict
end
/Helvetica exch definefont pop
/Courier-BoldOblique findfont
dup length dict begin
  {1 index /FID ne {def} {pop pop} ifelse} forall
  /Encoding WinAnsiEncoding def
  currentdict
end
/Courier-BoldOblique exch definefont pop
/Courier-Oblique findfont
dup length dict begin
  {1 index /FID ne {def} {pop pop} ifelse} forall
  /Encoding WinAnsiEncoding def
  currentdict
end
/Courier-Oblique exch definefont pop
/Times-Roman findfont
dup length dict begin
  {1 index /FID ne {def} {pop pop} ifelse} forall
  /Encoding WinAnsiEncoding def
  currentdict
end
/Times-Roman exch definefont pop
/Helvetica-BoldOblique findfont
dup length dict begin
  {1 index /FID ne {def} {pop pop} ifelse} forall
  /Encoding WinAnsiEncoding def
  currentdict
end
/Helvetica-BoldOblique exch definefont pop
/Helvetica-Bold findfont
dup length dict begin
  {1 index /FID ne {def} {pop pop} ifelse} forall
  /Encoding WinAnsiEncoding def
  currentdict
end
/Helvetica-Bold exch definefont pop
/Helvetica-Oblique findfont
dup length dict begin
  {1 index /FID ne {def} {pop pop} ifelse} forall
  /Encoding WinAnsiEncoding def
  currentdict
end
/Helvetica-Oblique exch definefont pop
/Times-BoldItalic findfont
dup length dict begin
  {1 index /FID ne {def} {pop pop} ifelse} forall
  /Encoding WinAnsiEncoding def
  currentdict
end
/Times-BoldItalic exch definefont pop
/Courier findfont
dup length dict begin
  {1 index /FID ne {def} {pop pop} ifelse} forall
  /Encoding WinAnsiEncoding def
  currentdict
end
/Courier exch definefont pop
/Times-Italic findfont
dup length dict begin
  {1 index /FID ne {def} {pop pop} ifelse} forall
  /Encoding WinAnsiEncoding def
  currentdict
end
/Times-Italic exch definefont pop
/Times-Bold findfont
dup length dict begin
  {1 index /FID ne {def} {pop pop} ifelse} forall
  /Encoding WinAnsiEncoding def
  currentdict
end
/Times-Bold exch definefont pop
%FOPEndFontReencode
%%EndProlog
%%Page: 1 1
%%PageBoundingBox: 0 0 560 420
%%BeginPageSetup
[1 0 0 -1 0 420] CT
%%EndPageSetup
GS
1 GC
N
0 0 560 420 re
f
GR
GS
1 GC
N
0 0 560 420 re
f
GR
GS
1 GC
N
73 374 M
507 374 L
507 31.5 L
73 31.5 L
cp
f
GR
GS
0.149 GC
2 setlinecap
1 LJ
0.5 LW
N
73 374 M
507 374 L
S
GR
GS
0.149 GC
2 setlinecap
1 LJ
0.5 LW
N
73 31.5 M
507 31.5 L
S
GR
GS
0.149 GC
2 setlinecap
1 LJ
0.5 LW
N
73 374 M
73 369.66 L
S
GR
GS
0.149 GC
2 setlinecap
1 LJ
0.5 LW
N
121.222 374 M
121.222 369.66 L
S
GR
GS
0.149 GC
2 setlinecap
1 LJ
0.5 LW
N
169.444 374 M
169.444 369.66 L
S
GR
GS
0.149 GC
2 setlinecap
1 LJ
0.5 LW
N
217.667 374 M
217.667 369.66 L
S
GR
GS
0.149 GC
2 setlinecap
1 LJ
0.5 LW
N
265.889 374 M
265.889 369.66 L
S
GR
GS
0.149 GC
2 setlinecap
1 LJ
0.5 LW
N
314.111 374 M
314.111 369.66 L
S
GR
GS
0.149 GC
2 setlinecap
1 LJ
0.5 LW
N
362.333 374 M
362.333 369.66 L
S
GR
GS
0.149 GC
2 setlinecap
1 LJ
0.5 LW
N
410.556 374 M
410.556 369.66 L
S
GR
GS
0.149 GC
2 setlinecap
1 LJ
0.5 LW
N
458.778 374 M
458.778 369.66 L
S
GR
GS
0.149 GC
2 setlinecap
1 LJ
0.5 LW
N
507 374 M
507 369.66 L
S
GR
GS
0.149 GC
2 setlinecap
1 LJ
0.5 LW
N
73 31.5 M
73 35.84 L
S
GR
GS
0.149 GC
2 setlinecap
1 LJ
0.5 LW
N
121.222 31.5 M
121.222 35.84 L
S
GR
GS
0.149 GC
2 setlinecap
1 LJ
0.5 LW
N
169.444 31.5 M
169.444 35.84 L
S
GR
GS
0.149 GC
2 setlinecap
1 LJ
0.5 LW
N
217.667 31.5 M
217.667 35.84 L
S
GR
GS
0.149 GC
2 setlinecap
1 LJ
0.5 LW
N
265.889 31.5 M
265.889 35.84 L
S
GR
GS
0.149 GC
2 setlinecap
1 LJ
0.5 LW
N
314.111 31.5 M
314.111 35.84 L
S
GR
GS
0.149 GC
2 setlinecap
1 LJ
0.5 LW
N
362.333 31.5 M
362.333 35.84 L
S
GR
GS
0.149 GC
2 setlinecap
1 LJ
0.5 LW
N
410.556 31.5 M
410.556 35.84 L
S
GR
GS
0.149 GC
2 setlinecap
1 LJ
0.5 LW
N
458.778 31.5 M
458.778 35.84 L
S
GR
GS
0.149 GC
2 setlinecap
1 LJ
0.5 LW
N
507 31.5 M
507 35.84 L
S
GR
GS
[1 0 0 1 73 378] CT
0.149 GC
/Helvetica 10 F
GS
[1 0 0 1 0 0] CT
-7 8 moveto 
1 -1 scale
(0.1) t 
GR
GR
GS
[1 0 0 1 121.22223 378] CT
0.149 GC
/Helvetica 10 F
GS
[1 0 0 1 0 0] CT
-10 8 moveto 
1 -1 scale
(0.15) t 
GR
GR
GS
[1 0 0 1 169.44444 378] CT
0.149 GC
/Helvetica 10 F
GS
[1 0 0 1 0 0] CT
-7 8 moveto 
1 -1 scale
(0.2) t 
GR
GR
GS
[1 0 0 1 217.66667 378] CT
0.149 GC
/Helvetica 10 F
GS
[1 0 0 1 0 0] CT
-10 8 moveto 
1 -1 scale
(0.25) t 
GR
GR
GS
[1 0 0 1 265.88889 378] CT
0.149 GC
/Helvetica 10 F
GS
[1 0 0 1 0 0] CT
-7 8 moveto 
1 -1 scale
(0.3) t 
GR
GR
GS
[1 0 0 1 314.11111 378] CT
0.149 GC
/Helvetica 10 F
GS
[1 0 0 1 0 0] CT
-10 8 moveto 
1 -1 scale
(0.35) t 
GR
GR
GS
[1 0 0 1 362.33334 378] CT
0.149 GC
/Helvetica 10 F
GS
[1 0 0 1 0 0] CT
-7 8 moveto 
1 -1 scale
(0.4) t 
GR
GR
GS
[1 0 0 1 410.55554 378] CT
0.149 GC
/Helvetica 10 F
GS
[1 0 0 1 0 0] CT
-10 8 moveto 
1 -1 scale
(0.45) t 
GR
GR
GS
[1 0 0 1 458.77777 378] CT
0.149 GC
/Helvetica 10 F
GS
[1 0 0 1 0 0] CT
-7 8 moveto 
1 -1 scale
(0.5) t 
GR
GR
GS
[1 0 0 1 507 378] CT
0.149 GC
/Helvetica 10 F
GS
[1 0 0 1 0 0] CT
-10 8 moveto 
1 -1 scale
(0.55) t 
GR
GR
GS
0.149 GC
2 setlinecap
1 LJ
0.5 LW
N
73 374 M
73 31.5 L
S
GR
GS
0.149 GC
2 setlinecap
1 LJ
0.5 LW
N
507 374 M
507 31.5 L
S
GR
GS
0.149 GC
2 setlinecap
1 LJ
0.5 LW
N
73 374 M
77.34 374 L
S
GR
GS
0.149 GC
2 setlinecap
1 LJ
0.5 LW
N
73 325.071 M
77.34 325.071 L
S
GR
GS
0.149 GC
2 setlinecap
1 LJ
0.5 LW
N
73 276.143 M
77.34 276.143 L
S
GR
GS
0.149 GC
2 setlinecap
1 LJ
0.5 LW
N
73 227.214 M
77.34 227.214 L
S
GR
GS
0.149 GC
2 setlinecap
1 LJ
0.5 LW
N
73 178.286 M
77.34 178.286 L
S
GR
GS
0.149 GC
2 setlinecap
1 LJ
0.5 LW
N
73 129.357 M
77.34 129.357 L
S
GR
GS
0.149 GC
2 setlinecap
1 LJ
0.5 LW
N
73 80.429 M
77.34 80.429 L
S
GR
GS
0.149 GC
2 setlinecap
1 LJ
0.5 LW
N
73 31.5 M
77.34 31.5 L
S
GR
GS
0.149 GC
2 setlinecap
1 LJ
0.5 LW
N
507 374 M
502.66 374 L
S
GR
GS
0.149 GC
2 setlinecap
1 LJ
0.5 LW
N
507 325.071 M
502.66 325.071 L
S
GR
GS
0.149 GC
2 setlinecap
1 LJ
0.5 LW
N
507 276.143 M
502.66 276.143 L
S
GR
GS
0.149 GC
2 setlinecap
1 LJ
0.5 LW
N
507 227.214 M
502.66 227.214 L
S
GR
GS
0.149 GC
2 setlinecap
1 LJ
0.5 LW
N
507 178.286 M
502.66 178.286 L
S
GR
GS
0.149 GC
2 setlinecap
1 LJ
0.5 LW
N
507 129.357 M
502.66 129.357 L
S
GR
GS
0.149 GC
2 setlinecap
1 LJ
0.5 LW
N
507 80.429 M
502.66 80.429 L
S
GR
GS
0.149 GC
2 setlinecap
1 LJ
0.5 LW
N
507 31.5 M
502.66 31.5 L
S
GR
GS
[1 0 0 1 69.00001 374] CT
0.149 GC
/Helvetica 10 F
GS
[1 0 0 1 0 0] CT
-6 2.5 moveto 
1 -1 scale
(0) t 
GR
GR
GS
[1 0 0 1 69.00001 325.07144] CT
0.149 GC
/Helvetica 10 F
GS
[1 0 0 1 0 0] CT
-6 2.5 moveto 
1 -1 scale
(1) t 
GR
GR
GS
[1 0 0 1 69.00001 276.14285] CT
0.149 GC
/Helvetica 10 F
GS
[1 0 0 1 0 0] CT
-6 2.5 moveto 
1 -1 scale
(2) t 
GR
GR
GS
[1 0 0 1 69.00001 227.21428] CT
0.149 GC
/Helvetica 10 F
GS
[1 0 0 1 0 0] CT
-6 2.5 moveto 
1 -1 scale
(3) t 
GR
GR
GS
[1 0 0 1 69.00001 178.28572] CT
0.149 GC
/Helvetica 10 F
GS
[1 0 0 1 0 0] CT
-6 2.5 moveto 
1 -1 scale
(4) t 
GR
GR
GS
[1 0 0 1 69.00001 129.35715] CT
0.149 GC
/Helvetica 10 F
GS
[1 0 0 1 0 0] CT
-6 2.5 moveto 
1 -1 scale
(5) t 
GR
GR
GS
[1 0 0 1 69.00001 80.42857] CT
0.149 GC
/Helvetica 10 F
GS
[1 0 0 1 0 0] CT
-6 2.5 moveto 
1 -1 scale
(6) t 
GR
GR
GS
[1 0 0 1 69.00001 31.5] CT
0.149 GC
/Helvetica 10 F
GS
[1 0 0 1 0 0] CT
-6 2.5 moveto 
1 -1 scale
(7) t 
GR
GR
GS
0 0.447 0.741 RC
1 LJ
0.5 LW
N
97.111 373.943 M
104.203 373.911 L
118.386 373.785 L
127.25 373.637 L
143.479 373.1 L
169.444 370.649 L
179.596 368.648 L
181.757 368.106 L
203.484 359.451 L
204.977 358.586 L
206.185 357.855 L
206.185 357.855 L
206.707 357.531 L
206.707 357.531 L
208.737 356.217 L
213.283 352.961 L
215.279 351.385 L
217.667 349.378 L
217.667 349.378 L
217.667 349.378 L
221.265 346.085 L
222.216 345.16 L
223.645 343.724 L
223.957 343.404 L
224.183 343.169 L
229.148 337.667 L
236.214 328.59 L
237.759 326.399 L
237.759 326.399 L
241.305 321.084 L
243.196 318.083 L
244.457 316.017 L
245.066 315.001 L
246.6 312.385 L
246.892 311.878 L
247.07 311.567 L
247.07 311.567 L
247.277 311.206 L
247.393 311.003 L
254.761 297.159 L
257.121 292.345 L
257.252 292.072 L
259.238 287.874 L
260.481 285.182 L
263.593 278.229 L
265.889 272.909 L
270.082 262.8 L
270.793 261.038 L
275.655 248.639 L
276.315 246.912 L
S
GR
GS
0 0.447 0.741 RC
1 LJ
0.5 LW
N
275.655 248.639 M
276.315 246.912 L
276.956 245.226 L
277.429 243.976 L
277.944 242.609 L
277.944 242.609 L
278.748 240.465 L
279.889 237.4 L
280.177 236.622 L
281.356 233.421 L
281.576 232.823 L
281.635 232.661 L
282.662 229.849 L
282.767 229.561 L
283.424 227.75 L
283.424 227.75 L
283.972 226.235 L
284.18 225.66 L
284.481 224.827 L
285.604 221.7 L
286.556 219.04 L
286.556 219.04 L
290.29 208.502 L
291.048 206.349 L
291.105 206.188 L
292.494 202.232 L
292.679 201.705 L
293.014 200.75 L
293.106 200.486 L
294.179 197.424 L
294.179 197.424 L
294.822 195.587 L
295.673 193.155 L
296.491 190.817 L
296.751 190.076 L
298.037 186.404 L
298.037 186.404 L
298.037 186.404 L
298.87 184.029 L
298.956 183.785 L
299.303 182.796 L
300.195 180.259 L
301.317 177.072 L
302.683 173.212 L
303.124 171.97 L
303.222 171.692 L
303.222 171.692 L
303.395 171.206 L
304.598 167.832 L
304.665 167.643 L
305.765 164.577 L
306.114 163.607 L
S
GR
GS
0 0.447 0.741 RC
1 LJ
0.5 LW
N
305.765 164.577 M
306.114 163.607 L
306.497 162.546 L
306.967 161.247 L
309.57 154.126 L
309.727 153.7 L
310.402 151.88 L
311.097 150.014 L
311.815 148.101 L
312.014 147.571 L
314.111 142.07 L
314.766 140.378 L
314.869 140.113 L
315.897 137.484 L
317.326 133.888 L
317.521 133.403 L
318.181 131.769 L
319.003 129.756 L
319.003 129.756 L
319.407 128.776 L
320.056 127.214 L
320.48 126.203 L
321.594 123.58 L
322.028 122.571 L
324.131 117.798 L
324.388 117.229 L
326.586 112.479 L
326.888 111.844 L
327.263 111.063 L
328.522 108.487 L
328.949 107.634 L
329.043 107.446 L
329.768 106.021 L
331.194 103.296 L
331.625 102.496 L
331.625 102.496 L
331.877 102.032 L
331.877 102.032 L
332.481 100.934 L
333.673 98.831 L
334.333 97.7 L
334.964 96.644 L
334.964 96.644 L
335.593 95.615 L
336.03 94.913 L
336.401 94.328 L
337.302 92.94 L
338.222 91.574 L
339.253 90.108 L
339.547 89.702 L
339.874 89.257 L
340.022 89.058 L
S
GR
GS
0 0.447 0.741 RC
1 LJ
0.5 LW
N
339.874 89.257 M
340.022 89.058 L
340.199 88.822 L
340.751 88.098 L
341.689 86.916 L
341.768 86.818 L
341.875 86.687 L
342.299 86.177 L
342.687 85.721 L
342.687 85.721 L
343.044 85.309 L
343.337 84.979 L
344.25 83.986 L
344.436 83.79 L
345.494 82.724 L
345.757 82.471 L
345.977 82.263 L
346.505 81.779 L
346.541 81.746 L
346.633 81.664 L
347.043 81.304 L
347.851 80.631 L
348.362 80.229 L
348.466 80.15 L
348.556 80.082 L
350.643 78.664 L
350.751 78.599 L
351.617 78.11 L
352.132 77.845 L
352.446 77.694 L
353.122 77.391 L
353.566 77.211 L
353.718 77.153 L
353.947 77.068 L
354.005 77.047 L
354.085 77.019 L
354.16 76.993 L
354.769 76.796 L
354.769 76.796 L
355.213 76.67 L
355.644 76.561 L
355.969 76.488 L
356.88 76.327 L
357.085 76.299 L
357.511 76.25 L
358.613 76.189 L
358.875 76.188 L
359.074 76.19 L
359.885 76.23 L
360.718 76.323 L
360.855 76.343 L
361.059 76.375 L
S
GR
GS
0 0.447 0.741 RC
1 LJ
0.5 LW
N
360.855 76.343 M
361.059 76.375 L
361.059 76.375 L
361.185 76.397 L
361.795 76.519 L
362.333 76.649 L
362.674 76.743 L
362.962 76.828 L
363.202 76.905 L
363.692 77.073 L
363.82 77.12 L
363.941 77.166 L
364.136 77.242 L
364.521 77.4 L
365.012 77.617 L
365.76 77.981 L
366.352 78.298 L
366.668 78.478 L
366.687 78.489 L
366.707 78.501 L
366.824 78.57 L
367.012 78.682 L
367.031 78.694 L
367.044 78.702 L
367.067 78.716 L
367.127 78.753 L
368.007 79.321 L
369.062 80.077 L
369.279 80.243 L
369.627 80.515 L
369.784 80.64 L
370.206 80.987 L
370.825 81.517 L
370.906 81.589 L
371.19 81.843 L
371.206 81.857 L
371.729 82.341 L
372.128 82.723 L
372.128 82.723 L
372.225 82.817 L
372.342 82.931 L
372.553 83.141 L
372.709 83.298 L
372.823 83.413 L
372.933 83.526 L
373.049 83.646 L
373.429 84.044 L
373.68 84.312 L
373.68 84.312 L
373.68 84.312 L
374.124 84.798 L
374.592 85.324 L
S
GR
GS
0 0.447 0.741 RC
1 LJ
0.5 LW
N
374.124 84.798 M
374.592 85.324 L
374.669 85.412 L
375.375 86.236 L
375.766 86.709 L
375.972 86.961 L
376.235 87.288 L
376.832 88.045 L
376.852 88.071 L
377.171 88.486 L
377.263 88.608 L
377.468 88.879 L
377.561 89.004 L
377.561 89.004 L
378.407 90.158 L
378.561 90.373 L
378.811 90.726 L
379.034 91.043 L
379.491 91.703 L
379.607 91.874 L
379.953 92.386 L
380.178 92.722 L
380.259 92.845 L
380.53 93.256 L
380.73 93.562 L
380.919 93.854 L
380.959 93.916 L
381 93.98 L
381 93.98 L
381.516 94.789 L
381.688 95.064 L
381.902 95.407 L
381.964 95.506 L
382.692 96.697 L
382.791 96.862 L
382.93 97.094 L
383.175 97.505 L
383.4 97.886 L
383.514 98.079 L
383.617 98.255 L
384.12 99.123 L
384.228 99.313 L
384.288 99.418 L
384.288 99.418 L
384.77 100.267 L
385.105 100.867 L
385.233 101.096 L
385.255 101.137 L
385.714 101.971 L
385.714 101.971 L
385.714 101.971 L
386.09 102.664 L
S
GR
GS
0 0.447 0.741 RC
1 LJ
0.5 LW
N
385.714 101.971 M
386.09 102.664 L
386.114 102.709 L
386.356 103.159 L
386.444 103.324 L
386.444 103.324 L
386.444 103.324 L
386.444 103.324 L
386.762 103.922 L
387.125 104.611 L
387.433 105.201 L
387.463 105.259 L
387.528 105.384 L
387.732 105.779 L
387.863 106.033 L
388.011 106.324 L
388.209 106.71 L
388.341 106.971 L
388.711 107.705 L
388.982 108.248 L
389.022 108.328 L
389.059 108.401 L
390.613 111.586 L
390.63 111.621 L
391.006 112.411 L
391.13 112.673 L
391.541 113.546 L
391.592 113.654 L
391.802 114.105 L
392.177 114.912 L
392.326 115.235 L
392.654 115.948 L
392.667 115.977 L
392.953 116.605 L
392.998 116.703 L
393.02 116.753 L
393.43 117.659 L
394.138 119.243 L
394.244 119.482 L
394.255 119.506 L
394.458 119.965 L
395.327 121.952 L
395.392 122.1 L
395.392 122.1 L
395.785 123.01 L
395.939 123.367 L
396.035 123.592 L
396.351 124.332 L
396.468 124.606 L
397.377 126.758 L
397.651 127.414 L
398.38 129.172 L
S
GR
GS
0 0.447 0.741 RC
1 LJ
0.5 LW
N
397.651 127.414 M
398.38 129.172 L
398.38 129.172 L
398.5 129.462 L
399.088 130.898 L
399.745 132.514 L
399.795 132.639 L
399.912 132.928 L
400.911 135.422 L
400.967 135.564 L
401.274 136.338 L
401.322 136.457 L
401.507 136.925 L
402.738 140.067 L
403.812 142.847 L
404.081 143.549 L
404.266 144.031 L
404.8 145.434 L
405.663 147.714 L
405.689 147.782 L
406.119 148.925 L
406.939 151.118 L
406.973 151.21 L
407.032 151.37 L
407.037 151.382 L
407.139 151.657 L
407.252 151.959 L
407.359 152.249 L
407.447 152.485 L
407.77 153.356 L
408.259 154.682 L
408.259 154.682 L
408.646 155.733 L
408.937 156.526 L
408.961 156.593 L
409.046 156.824 L
409.43 157.874 L
409.607 158.358 L
409.821 158.946 L
409.942 159.278 L
410.971 162.116 L
410.992 162.174 L
411.019 162.248 L
411.019 162.248 L
411.081 162.418 L
411.125 162.54 L
411.142 162.588 L
411.717 164.182 L
411.836 164.513 L
412.032 165.058 L
412.534 166.458 L
412.789 167.168 L
S
GR
GS
0 0.447 0.741 RC
1 LJ
0.5 LW
N
412.534 166.458 M
412.789 167.168 L
413.322 168.662 L
413.42 168.936 L
413.804 170.011 L
413.804 170.011 L
414.056 170.719 L
414.159 171.011 L
414.203 171.132 L
414.281 171.352 L
414.425 171.757 L
414.543 172.089 L
414.587 172.214 L
414.756 172.691 L
414.774 172.74 L
415.042 173.497 L
415.914 175.96 L
415.914 175.96 L
416.501 177.623 L
416.501 177.623 L
417.25 179.748 L
417.389 180.145 L
417.557 180.622 L
417.621 180.803 L
418.027 181.957 L
418.084 182.121 L
418.151 182.311 L
418.315 182.78 L
418.431 183.109 L
418.778 184.097 L
418.778 184.097 L
419.167 185.205 L
419.679 186.666 L
419.961 187.472 L
420.071 187.786 L
420.287 188.403 L
420.732 189.672 L
420.855 190.024 L
421.213 191.046 L
421.257 191.174 L
421.557 192.029 L
421.684 192.392 L
421.886 192.972 L
421.916 193.055 L
422.069 193.493 L
422.384 194.392 L
422.459 194.606 L
422.611 195.042 L
422.73 195.381 L
422.92 195.925 L
423.043 196.276 L
423.562 197.758 L
S
GR
GS
0 0.447 0.741 RC
1 LJ
0.5 LW
N
423.043 196.276 M
423.562 197.758 L
423.819 198.493 L
424.175 199.51 L
424.248 199.718 L
424.98 201.805 L
425.017 201.912 L
425.061 202.037 L
425.838 204.25 L
425.927 204.503 L
426.085 204.953 L
426.879 207.211 L
426.949 207.411 L
427.011 207.585 L
427.161 208.011 L
427.329 208.488 L
427.336 208.508 L
427.935 210.206 L
428.288 211.207 L
428.654 212.242 L
429.218 213.834 L
430.357 217.042 L
430.392 217.142 L
430.698 218.002 L
430.759 218.171 L
430.765 218.189 L
431.162 219.301 L
431.216 219.453 L
431.243 219.53 L
431.972 221.566 L
432.145 222.049 L
433.41 225.567 L
433.41 225.567 L
434.121 227.532 L
435.062 230.123 L
435.473 231.251 L
437.186 235.915 L
437.925 237.912 L
438.16 238.544 L
438.495 239.445 L
439.819 242.979 L
439.867 243.107 L
440.372 244.446 L
440.662 245.21 L
441.007 246.121 L
443.164 251.741 L
445.477 257.645 L
445.745 258.32 L
446.518 260.258 L
447.186 261.92 L
458.778 288.712 L
467.708 306.465 L
S
GR
GS
0 0.447 0.741 RC
1 LJ
0.5 LW
N
458.778 288.712 M
467.708 306.465 L
S
GR
GS
0.851 0.325 0.098 RC
1 LJ
0.5 LW
N
126.485 364.3 M
154.216 346.284 L
204.583 259.749 L
213.84 235.637 L
218.13 223.886 L
220.798 216.448 L
225.061 204.414 L
225.698 202.605 L
234.194 178.455 L
236.956 170.685 L
237.673 168.68 L
240.52 160.797 L
253.231 127.886 L
255.271 123.094 L
256.67 119.906 L
265.597 101.735 L
272.164 91.155 L
273.346 89.533 L
273.816 88.913 L
275.533 86.77 L
275.933 86.3 L
278.966 83.081 L
281.49 80.888 L
285.045 78.568 L
291.819 76.703 L
292.831 76.716 L
296.349 77.35 L
298.227 78.062 L
299.215 78.54 L
302.159 80.384 L
303.222 81.203 L
303.325 81.287 L
310.667 89.133 L
314.111 94.041 L
315.625 96.431 L
316.167 97.319 L
316.234 97.432 L
323.756 111.503 L
349.213 175.892 L
350.944 180.786 L
358.791 203.099 L
363.602 216.688 L
366.428 224.56 L
372.76 241.761 L
379.483 259.128 L
385.332 273.297 L
398.727 301.867 L
399.596 303.519 L
406.055 315.027 L
408.018 318.252 L
S
GR
GS
0.851 0.325 0.098 RC
1 LJ
0.5 LW
N
406.055 315.027 M
408.018 318.252 L
S
GR
%%Trailer
%%Pages: 1
%%EOF
